<?xml version="1.0" encoding="utf-8"?>
<!-- Generator: Adobe Illustrator 23.0.5, SVG Export Plug-In . SVG Version: 6.00 Build 0)  -->
<svg version="1.1" xmlns="http://www.w3.org/2000/svg" xmlns:xlink="http://www.w3.org/1999/xlink" x="0px" y="0px"
	 viewBox="0 0 362.89 370.75" style="enable-background:new 0 0 362.89 370.75;" xml:space="preserve">
<style type="text/css">
	.st0{fill:#82459B;stroke:url(#SVGID_1_);stroke-miterlimit:10;}
	.st1{fill:#FFFFFF;}
	.st2{font-family:'MyriadPro-Regular';}
	.st3{font-size:344.9829px;}
	.st4{fill:none;}
</style>
<g id="Layer_1">
	<linearGradient id="SVGID_1_" gradientUnits="userSpaceOnUse" x1="-6.4852" y1="210.2883" x2="385.5148" y2="210.2883">
		<stop  offset="0" style="stop-color:#FFFFFF"/>
		<stop  offset="1" style="stop-color:#000000"/>
	</linearGradient>
	<rect x="-5.99" y="13.25" class="st0" width="391" height="394.07"/>
	<text id="XMLID_1_" transform="matrix(1.051 -0.1592 0.1498 0.9887 43.2475 331.9594)" class="st1 st2 st3">W</text>
	<rect id="_x3C_Slice_x3E_" x="-5.17" y="11.75" class="st4" width="389" height="395"/>
</g>
<g id="Layer_2">
	<rect x="-3.03" y="15.43" class="st4" width="388.64" height="388.64"/>
	<rect id="_x3C_Slice_x3E__1_" x="-4.99" y="12.75" class="st4" width="391" height="391"/>
</g>
</svg>
